<svg width="57" height="54" viewBox="0 0 57 54" fill="none" xmlns="http://www.w3.org/2000/svg">
<path d="M0 27.1225C0 29.7061 1.50138 31.9415 3.6874 33.0233V21.2236C1.50138 22.3025 0 24.5389 0 27.1225Z" fill="#D0021B"/>
<path d="M53.1805 21.2236V33.0233C55.318 31.9435 56.786 29.7071 56.786 27.1225C56.786 24.5379 55.318 22.3025 53.1805 21.2236Z" fill="#D0021B"/>
<path d="M53.1797 20.4185C53.1796 19.8562 52.9926 19.3098 52.6482 18.8654C52.3038 18.4209 51.8214 18.1036 51.277 17.9632C50.9113 17.0457 50.5026 16.1515 50.0509 15.2805C49.4707 14.1627 48.8178 13.0842 48.0964 12.0519C48.2812 11.6454 48.3477 11.1951 48.2883 10.7526C48.2289 10.31 48.0459 9.89322 47.7605 9.54994C47.5587 9.30466 47.3502 9.05937 47.1413 8.82267C42.1323 3.13352 35.447 0 28.3159 0C21.1848 0 14.5004 3.13352 9.49123 8.82316C9.28205 9.06035 9.07435 9.3049 8.87179 9.54994C8.58633 9.89321 8.40337 10.31 8.34391 10.7525C8.28444 11.195 8.35088 11.6454 8.53559 12.0519C7.81384 13.0844 7.16063 14.1632 6.58017 15.2813C6.1136 16.1818 5.69355 17.1057 5.32168 18.0493C4.84125 18.2321 4.42769 18.5566 4.13585 18.9798C3.844 19.403 3.68764 19.9049 3.6875 20.419V33.8852C3.68783 34.4878 3.90274 35.0706 4.2937 35.529C4.68466 35.9875 5.2261 36.2917 5.82095 36.3871C7.13083 40.2957 9.48672 43.7704 12.6326 46.4335C15.7784 49.0967 19.5939 50.8464 23.6642 51.4925C23.7467 52.1741 24.0724 52.803 24.5814 53.2635C25.0904 53.7241 25.7485 53.9854 26.4348 53.9994C27.121 54.0134 27.7892 53.7791 28.3166 53.3397C28.8439 52.9003 29.195 52.2852 29.3051 51.6075C29.4153 50.9299 29.2773 50.2352 28.9163 49.6513C28.5554 49.0673 27.9958 48.6333 27.3405 48.4291C26.6852 48.2248 25.9782 48.2641 25.3495 48.5396C24.7208 48.815 24.2127 49.3083 23.9185 49.9286C16.2557 48.7048 9.93729 43.2723 7.4132 36.1215C7.81883 35.9055 8.15808 35.5832 8.39463 35.1891C8.63118 34.7951 8.75611 34.3441 8.75604 33.8845V20.4183C8.75647 19.9952 8.6508 19.5788 8.44872 19.2072C8.24664 18.8355 7.9546 18.5205 7.59932 18.2909C8.3134 16.5848 9.19957 14.9559 10.2441 13.4296C10.4049 13.4623 10.5687 13.4787 10.7328 13.4787C11.0885 13.4787 11.4398 13.3998 11.7614 13.2476C12.0829 13.0953 12.3666 12.8736 12.5921 12.5983C15.1687 9.46949 18.4186 7.1513 21.9911 5.89396C24.0226 5.17564 26.1616 4.80883 28.3164 4.80931C34.2209 4.80931 39.952 7.65119 44.0404 12.6062C44.2655 12.8796 44.5484 13.0997 44.8688 13.2506C45.1892 13.4014 45.539 13.4793 45.8931 13.4787H45.9012C46.0652 13.4787 46.2287 13.4623 46.3894 13.4296C47.4598 14.995 48.3639 16.6679 49.0869 18.4212C49.0054 18.4846 48.9279 18.5529 48.8547 18.6257C48.619 18.8609 48.4321 19.1403 48.3048 19.4479C48.1774 19.7556 48.1121 20.0853 48.1126 20.4183V33.8845C48.1192 34.5524 48.3891 35.1907 48.8636 35.6607C49.3381 36.1307 49.9789 36.3943 50.6466 36.3943C51.3144 36.3943 51.9552 36.1307 52.4297 35.6607C52.9042 35.1907 53.1741 34.5524 53.1807 33.8845L53.1797 20.4185Z" fill="#D0021B"/>
</svg>
